lon,lat,city
9.18951,45.46427,MILANO
12.4839,41.89474,ROMA
11.57549,48.13743,MUNCHEN
16.37208,48.20849,WIEN
12.32667,45.43861,VENEZIA
13.78,45.64861,TRIESTE
14.25,40.83333,NAPOLI
8.56028,40.72722,SASSARI
13.2333,46.0667,UDINE
13.09306,45.655,LIGNANO
12.6563,45.9626,PORDENONE
13.01667,46.4,TOLMEZZO
13.31694,45.9,PALMANOVA
